[
	{"name": "Marble", "application": "marble", "type": "generic-build", "cmakeParameters": "", "dependency": ""},
	{"name": "KAlgebra", "application": "kalgebra", "type": "generic-build", "cmakeParameters": "", "dependency": ""},
	{"name": "Klimbgrades", "application": "klimbgrades", "type": "generic-build", "cmakeParameters": "", "dependency": ""},
	{"name": "KTuberling", "application": "ktuberling", "type": "generic-build", "cmakeParameters": "", "dependency": ""},
	{"name": "Okular", "application": "okular", "type": "generic-build", "cmakeParameters": "", "dependency": "/opt/helpers/build-poppler"},
	{"name": "Itinerary", "application": "itinerary", "type": "generic-build", "cmakeParameters": "", "dependency": "/opt/helpers/build-poppler -DENABLE_UNSTABLE_API_ABI_HEADERS=ON -DENABLE_UTILS=OFF && /opt/helpers/build-cmake zxing-cpp https://github.com/nu-book/zxing-cpp.git -DBUILD_UNIT_TESTS=OFF -DBUILD_BLACKBOX_TESTS=OFF -DBUILD_EXAMPLES=OFF && AUTOTOOLS_EXTRA='--disable-static --without-lzma --without-python --without-debug --without-docbook --without-http' /opt/helpers/build-autotools libxml2 https://gitlab.gnome.org/GNOME/libxml2.git"},
	{"name": "Calindori", "application": "calindori", "type": "generic-build", "cmakeParameters": "", "dependency": ""},
	{"name": "Kirogi", "application": "kirogi", "type": "generic-build", "cmakeParameters": "", "dependency": "/opt/helpers/build-gstreamer-binaries ; /opt/helpers/build-cmake QtZeroConf https://github.com/jbagg/QtZeroConf.git -DBUILD_SHARED_LIBS=ON"},
    {"name": "Plasma-Phonebook", "application": "plasma-phonebook", "type": "generic-build", "cmakeParameters": "", "dependency": ""},
    {"name": "Plasma-Camera", "application": "plasma-camera", "type": "generic-build", "cmakeParameters": "", "dependency": ""},
    {"name": "Kaidan", "application": "kaidan", "type": "generic-build", "cmakeParameters": "", "dependency": "export APP_GIT_EXTRA='--recurse-submodules' && /opt/helpers/build-cmake zxing-cpp https://github.com/nu-book/zxing-cpp.git -DBUILD_UNIT_TESTS=OFF -DBUILD_BLACKBOX_TESTS=OFF -DBUILD_EXAMPLES=OFF && /opt/helpers/build-cmake qxmpp https://github.com/qxmpp-project/qxmpp.git"},
    {"name": "Keysmith", "application": "keysmith", "type": "generic-build", "cmakeParameters": "", "dependency": ""},
    {"name": "Kookbook", "application": "kookbook", "type": "generic-build", "cmakeParameters": "", "dependency": "/opt/helpers/build-discount"},
    {"name": "KWeather", "application": "kweather", "type": "generic-build", "cmakeParameters": "", "dependency": ""},
    {"name": "Kontrast", "application": "kontrast", "type": "generic-build", "cmakeParameters": "", "dependency": ""},
    {"name": "KRecorder", "application": "krecorder", "type": "generic-build", "cmakeParameters": "", "dependency": ""},
    {"name": "KOSMIndoorMap", "application": "kosmindoormap", "type": "generic-build", "cmakeParameters": "-DBUILD_STANDALONE_APP=ON", "dependency": ""},
    {"name": "Elisa", "application": "elisa", "type": "generic-build", "cmakeParameters": "", "dependency": ""},
	{"name": "KDEConnect", "application": "kdeconnect-kde", "type": "kdeconnect-build", "cmakeParameters": "", "dependency": ""}
]
